Problema: NRainhas2 (n = 1)
Medias para amostra = 1Algoritmo;Estados Expandidos;Estados Visitados;Fator Ramificacao;Profundidade da Solucao;Custo da Solucao;Clocks
Backtracking;1;1;1;0;0;0
Profundidade;1;0;0;0;0;0
Largura;1;0;0;0;0;0
Ordenada;1;0;0;0;0;0
Gulosa;1;0;0;0;0;0
A*;1;0;0;0;0;0
IDA*;1;0;0;0;4294967295;0

CLOCKS_PER_SECOND
1000
